Stats for staff/student,,,,,,,,,
,Student General Contact,Student Induction,Student Training/demo ,Staff and staff OH contact,Staff Training ,Laptop work/lab,Testing,Disability Service,Book Scanner
Sep-08,3,1,2,1,0,,,,
Oct-08,7,7,8,17,1,,,,
Nov-08,6,10,9,25,2,,,,
Dec-08,2,4,5,3,0,,,,
Jan-09,9,6,9,21,5,,,,
Feb-09,8,2,15,39,6,,,,
Mar-09,13,3,5,47,4,,,,
Apr-09,29,2,4,37,3,,,,
May-09,28,1,3,38,0,,,,
Jun-09,4,2,3,35,4,,,,
Jul-09,8,0,2,35,2,,,,
Aug-09,6,0,1,18,5,,,,
Totals 2008 - 2009,114,38,66,316,32,,,,
,Student General Contact,Student Induction,Student Training/demo ,Staff and staff OH contact,Staff Training ,,,,
,,,,,,,,,
Sep-09,11,0,0,21,1,,,,
Oct-09,17,22,17,32,2,,,,
Nov-09,15,21,22,36,2,,,,
Dec-09,16,7,12,44,2,,,,
Jan-10,19,7,6,54,0,,,,
Feb-10,15,5,3,46,0,,,,
Mar-10,21,3,4,36,1,,,,
Apr-10,19,2,2,36,3,,,,
May-10,35,3,10,29,0,,,,
Jun-10,14,0,12,43,0,,,,
Jul-10,12,2,13,70,6,,,,
Aug-10,18,0,5,68,0,,,,
Totals 2009 - 2010,212,72,106,515,17,,,,
,Student General Contact,Student Induction,Student Training/demo ,Staff and staff OH contact,Staff Training ,Laptop work,,,
Sep-10,22,1,5,45,2,24,,,
Oct-10,17,9,16,59,1,13,,,
Nov-10,42,7,9,76,1,11,,,
Dec-10,4,2,3,39,0,12,,,
Jan-11,27,3,4,74,1,1,,,
Feb-11,24,2,3,68,5,1,,,
Mar-11,13,5,9,105,1,10,,,
Apr-11,8,0,2,65,2,6,,,
May-11,9,0,0,57,0,9,,,
Jun-11,10,1,2,90,1,5,,,
Jul-11,11,2,5,80,1,10,,,
Aug-11,4,2,4,82,2,7,,,
Totals 2010 - 2011,191,34,62,840,17,109,,,
,Student General Contact,Student Induction,Student Training/demo ,Staff and staff OH contact,Staff Training ,Laptop work,,,
Sep-11,17,0,4,60,2,19,,,
Oct-11,31,12,14,102,0,11,,,
Nov-11,26,5,8,53,0,7,,,
Dec-11,13,2,2,44,1,1,,,
Jan-12,28,6,9,10,1,8,,,
Feb-12,9,1,11,103,7,4,,,
Mar-12,24,3,6,109,1,9,,,
Apr-12,14,4,7,60,2,1,,,
May-12,10,2,2,83,3,5,,,
Jun-12,12,1,4,97,0,11,,,
Jul-12,12,0,1,150,0,9,,,
Aug-12,21,1,7,103,0,4,,,
Totals 2011 - 2012,217,37,75,974,17,89,,,
Sep-12,23,2,5,86,1,3,,,
Oct-12,44,16,14,63,1,0,,,
Nov-12,32,6,8,82,4,1,,,
Dec-12,19,1,13,34,1,3,,,
Jan-13,29,3,4,83,3,7,,,
Feb-13,31,6,5,85,1,2,,,
Mar-13,37,5,4,72,2,1,,,
Apr-13,42,2,8,94,3,9,,,
May-13,28,3,4,83,1,3,,,
Jun-13,21,0,2,61,5,2,,,
Jul-13,18,2,9,76,7,5,,,
Aug-13,31,2,9,91,2,2,,,
Totals 2012 - 2013,355,48,85,910,31,38,,,
,Student General Contact,Student Induction,Student Training/demo ,Staff and staff OH contact,Staff Training ,Laptop work/lab,Testing,Disability Service,
Sep-13,26,6,8,79,6,13,,,
Oct-13,39,16,20,70,0,6,,,
Nov-13,31,7,12,44,3,7,,,
Dec-13,2,1,1,6,0,0,,,
Jan-14,11,2,3,63,0,0,,,
Feb-14,32,6,11,132,0,5,,,
Mar-14,36,3,10,109,1,7,,,
Apr-14,10,0,2,71,1,3,,,
May-14,23,3,2,76,3,13,,,
Jun-14,18,3,4,109,8,0,,,
Jul-14,20,1,4,169,5,2,,,
Aug-14,16,0,1,94,1,4,,,
Totals - 2013 - 2014,264,48,78,1022,28,60,,,
Sep-14,15,2,2,110,5,4,9,4,
Oct-14,26,30,18,172,2,13,5,11,
Nov-14,44,18,13,92,8,18,8,12,
Dec-14,15,3,1,92,5,14,6,10,
Jan-15,17,9,5,101,7,5,15,9,
Feb-15,28,14,10,65,3,5,6,6,
Mar-15,14,15,11,75,2,17,4,17,
Apr-15,15,3,3,51,4,15,9,7,
May-15,15,5,2,50,1,8,4,14,
Jun-15,18,1,8,168,6,37,9,12,
Jul-15,6,1,2,151,3,24,4,5,
Aug-15,18,4,3,111,1,9,5,4,
Totals - 2014 - 2015,231,105,78,1238,47,169,84,111,
Sep-15,9,0,0,120,2,14,7,6,
Oct-15,1,0,0,11,1,2,0,1,
Nov-15,14,0,0,121,0,9,2,7,
Dec-15,7,0,1,60,0,11,0,1,
Jan-16,23,1,3,93,1,18,0,6,
Feb-16,33,7,4,137,2,32,7,9,
Mar-16,40,17,14,64,7,4,4,5,
Apr-16,38,5,8,91,2,0,8,11,
May-16,24,4,7,106,3,0,3,7,
Jun-16,13,0,3,80,7,3,10,2,
Jul-16,16,3,4,102,9,0,21,4,3
Aug-16,10,2,5,91,9,1,14,3,0
Totals - 2015 - 2016,228,39,49,1076,43,94,76,62,
Sep-16,12,7,8,99,2,0,5,3,4
Oct-16,52,11,9,97,2,0,4,7,3
Nov-16,29,16,8,123,7,0,14,3,0
Dec-16,6,6,3,76,4,1,3,1,2
Jan-17,20,2,3,68,3,5,3,5,2
Feb-17,17,4,6,87,3,0,3,4,4
Mar-17,27,13,9,159,3,0,2,9,0
Apr-17,13,4,3,74,1,0,2,9,1
May-17,8,9,4,103,4,0,5,6,2
Jun-17,9,7,5,82,10,0,5,10,0
Jul-17,5,1,5,130,31,0,6,1,0
Aug-17,11,3,2,110,5,0,7,3,2
Totals 2016 - 2017,209,83,65,1208,75,6,59,61,20
